[gd_scene load_steps=10 format=2]

[ext_resource path="res://Assets/FBXs/Backflip.fbx" type="PackedScene" id=1]
[ext_resource path="res://Scenes/AnimationTree.gd" type="Script" id=2]

[sub_resource type="AnimationNodeAnimation" id=22]
animation = "Armature|Armature|mixamo.com|Layer0.001"

[sub_resource type="AnimationNodeAnimation" id=23]
animation = "Armature|Armature|mixamo.com|Layer0"

[sub_resource type="AnimationNodeBlend2" id=24]

[sub_resource type="AnimationNodeBlendTree" id=25]
graph_offset = Vector2( 0, 63.5 )
nodes/Animation/node = SubResource( 23 )
nodes/Animation/position = Vector2( 300, 20 )
"nodes/Animation 2/node" = SubResource( 22 )
"nodes/Animation 2/position" = Vector2( 300, 140 )
nodes/Blend2/node = SubResource( 24 )
nodes/Blend2/position = Vector2( 860, 40 )
nodes/output/position = Vector2( 1100, 100 )
node_connections = [ "output", 0, "Blend2", "Blend2", 0, "Animation", "Blend2", 1, "Animation 2" ]

[sub_resource type="AnimationNodeAnimation" id=18]
animation = "Armature|Armature|mixamo.com|Layer0"

[sub_resource type="AnimationNodeStateMachine" id=21]
states/Backflip/node = SubResource( 25 )
states/Backflip/position = Vector2( 571, 181 )
states/Capo/node = SubResource( 18 )
states/Capo/position = Vector2( 756, 79 )
start_node = "Capo"

[sub_resource type="AnimationNodeStateMachinePlayback" id=6]

[node name="Backflip" instance=ExtResource( 1 )]

[node name="Armature" parent="." index="0"]
transform = Transform( 1, 0, 0, 0, 1, -4.37114e-08, 0, 4.37114e-08, 1, 0, 0, 0 )

[node name="AnimationTree" type="AnimationTree" parent="." index="1"]
tree_root = SubResource( 21 )
anim_player = NodePath("../AnimationPlayer")
active = true
parameters/playback = SubResource( 6 )
parameters/Backflip/Blend2/blend_amount = 0
script = ExtResource( 2 )

[node name="AnimationPlayer" parent="." index="2"]
autoplay = "Armature|Armature|mixamo.com|Layer0"
